module gitlab.com/H1rono/dbexample

go 1.17

require (
	github.com/jmoiron/sqlx v1.3.5
	github.com/labstack/echo/v4 v4.7.2
)

require (
	github.com/labstack/gommon v0.3.1 // indirect
	github.com/mattn/go-colorable v0.1.12 // indirect
	github.com/mattn/go-isatty v0.0.14 // indirect
	github.com/valyala/bytebufferpool v1.0.0 // indirect
	github.com/valyala/fasttemplate v1.2.1 // indirect
	golang.org/x/crypto v0.0.0-20220525230936-793ad666bf5e // indirect
	golang.org/x/net v0.0.0-20220614195744-fb05da6f9022 // indirect
	golang.org/x/sys v0.0.0-20220614162138-6c1b26c55098 // indirect
	golang.org/x/text v0.3.7 // indirect
)
